Read in files from FreeSurfer
…
library(ggseg)
library(ggplot2)

subjects_dir <- "/Applications/freesurfer/subjects/"

stats_file <- file.path(subjects_dir, "bert/stats/lh.aparc.stats")
data <- read_freesurfer_stats(stats_file)
data
#> # A tibble: 34 × 10
#>    label    NumVert SurfArea GrayVol ThickAvg ThickStd MeanCurv GausCurv FoldInd
#>    <chr>      <int>    <int>   <int>    <dbl>    <dbl>    <dbl>    <dbl>   <int>
#>  1 bankssts    1181      831    2297     2.77    0.428    0.116    0.024      11
#>  2 caudala…     843      572    1534     2.72    0.469    0.124    0.013      10
#>  3 caudalm…    2758     1840    5772     2.80    0.526    0.114    0.021      26
#>  4 cuneus      2683     1654    3074     1.81    0.471    0.14     0.033      39
#>  5 entorhi…     581      416    1840     3.33    0.667    0.116    0.032       5
#>  6 fusiform    4113     2875    8519     2.72    0.599    0.131    0.025      52
#>  7 inferio…    4948     3466   10559     2.70    0.509    0.131    0.029      65
#>  8 inferio…    5056     3542   12358     2.98    0.625    0.138    0.033      74
#>  9 isthmus…    1561      990    2350     2.09    0.745    0.113    0.023      19
#> 10 lateral…    7961     5077   12743     2.30    0.588    0.139    0.033     104
#> # … with 24 more rows, and 1 more variable: CurvInd <dbl>
…
dat <- read_atlas_files(subject_dir, "aparc.stats$")
dat
#> # A tibble: 68 × 11
#>    subject label    NumVert SurfArea GrayVol ThickAvg ThickStd MeanCurv GausCurv
#>    <chr>   <chr>      <int>    <int>   <int>    <dbl>    <dbl>    <dbl>    <dbl>
#>  1 bert    lh_bank…    1181      831    2297     2.77    0.428    0.116    0.024
#>  2 bert    lh_caud…     843      572    1534     2.72    0.469    0.124    0.013
#>  3 bert    lh_caud…    2758     1840    5772     2.80    0.526    0.114    0.021
#>  4 bert    lh_cune…    2683     1654    3074     1.81    0.471    0.14     0.033
#>  5 bert    lh_ento…     581      416    1840     3.33    0.667    0.116    0.032
#>  6 bert    lh_fusi…    4113     2875    8519     2.72    0.599    0.131    0.025
#>  7 bert    lh_infe…    4948     3466   10559     2.70    0.509    0.131    0.029
#>  8 bert    lh_infe…    5056     3542   12358     2.98    0.625    0.138    0.033
#>  9 bert    lh_isth…    1561      990    2350     2.09    0.745    0.113    0.023
#> 10 bert    lh_late…    7961     5077   12743     2.30    0.588    0.139    0.033
#> # … with 58 more rows, and 2 more variables: FoldInd <int>, CurvInd <dbl>
…
FreeSurfer has internal functions to convert their raw stats files
into tables, gather subject into a single data file with particular
metric. It is quite common to use these files, but again the formatting
is not something R is very happy with. The function
read_freesurfer_table() is for easier import of these
files, particularly for further plotting with ggseg.

# Path to our particular file, yours will be wherever you have saved it
table_path <- here::here("tests/testthat/data/aparc.volume.table")
table_path
#> [1] "/private/var/folders/ws/1mjqfpsj3kv_b_z2091qkm600000gq/T/RtmpVtmYET/Rbuild1402ab2e1870/ggseg/tests/testthat/data/aparc.volume.table"

read_freesurfer_table(table_path)
#> # A tibble: 36 × 3
#>    subject label                             value
#>    <chr>   <chr>                             <dbl>
#>  1 bert    rh_bankssts_volume                 1969
#>  2 bert    rh_caudalanteriorcingulate_volume  2280
#>  3 bert    rh_caudalmiddlefrontal_volume      5390
#>  4 bert    rh_cuneus_volume                   2998
#>  5 bert    rh_entorhinal_volume               1735
#>  6 bert    rh_fusiform_volume                 8144
#>  7 bert    rh_inferiorparietal_volume        14876
#>  8 bert    rh_inferiortemporal_volume        11016
#>  9 bert    rh_isthmuscingulate_volume         1983
#> 10 bert    rh_lateraloccipital_volume        12729
#> # … with 26 more rows
…
Easiest way to clean, is by using the measure argument
for the function.

dat <- read_freesurfer_table(table_path, measure = "volume")
dat
#> # A tibble: 36 × 3
#>    subject label                      volume
#>    <chr>   <chr>                       <dbl>
#>  1 bert    rh_bankssts                  1969
#>  2 bert    rh_caudalanteriorcingulate   2280
#>  3 bert    rh_caudalmiddlefrontal       5390
#>  4 bert    rh_cuneus                    2998
#>  5 bert    rh_entorhinal                1735
#>  6 bert    rh_fusiform                  8144
#>  7 bert    rh_inferiorparietal         14876
#>  8 bert    rh_inferiortemporal         11016
#>  9 bert    rh_isthmuscingulate          1983
#> 10 bert    rh_lateraloccipital         12729
#> # … with 26 more rows
…
