Using atlases with geom_sf
…
#>          superior parietal          superior temporal 
#>                  "#14B48C"                  "#8CDCDC" 
#>              supramarginal               frontal pole 
#>                  "#50A014"                  "#640064" 
#>              temporal pole        transverse temporal 
#>                  "#464646"                  "#9696C8" 
#>                     insula 
#>                  "#FFC020"
dk$data
#> Simple feature collection with 90 features and 5 fields
#> Geometry type: MULTIPOLYGON
#> Dimension:     XY
#> Bounding box:  xmin: 0 ymin: 0 xmax: 1390.585 ymax: 205.4407
#> CRS:           NA
#> # A tibble: 90 x 6
#>    hemi  side   region     label     roi                                geometry
#>  * <chr> <chr>  <chr>      <chr>     <chr>                        <MULTIPOLYGON>
#>  1 left  later… <NA>       <NA>      0001  (((84.32563 34.46407, 84.16625 33.33…
#>  2 left  later… bankssts   lh_banks… 0002  (((214.8215 108.8139, 210.4695 107.6…
#>  3 left  later… caudal mi… lh_cauda… 0004  (((106.16 184.3144, 93.61281 180.911…
#>  4 left  later… fusiform   lh_fusif… 0008  (((256.5481 48.35713, 244.044 45.027…
#>  5 left  later… inferior … lh_infer… 0009  (((218.4373 161.6233, 214.914 157.69…
#>  6 left  later… inferior … lh_infer… 0010  (((250.7745 70.75764, 246.3042 68.92…
#>  7 left  later… lateral o… lh_later… 0012  (((277.4615 115.0523, 277.4682 115.0…
#>  8 left  later… lateral o… lh_later… 0013  (((66.26648 69.56474, 56.24012 66.01…
#>  9 left  later… middle te… lh_middl… 0016  (((238.0128 91.25816, 230.1394 88.37…
#> 10 left  later… pars oper… lh_parso… 0019  (((79.03391 126.496, 74.24232 124.26…
#> # … with 80 more rows
…
